{
    "opml": {
        "head": {
            "title": "2019"
        },
        "body": {
            "outline": [
                {
                    "outline": [
                        {
                            "_text": "Control temperatura casa"
                        },
                        {
                            "_text": "Mindly Web Opener"
                        },
                        {
                            "_text": "Haxumatic"
                        },
                        {
                            "_text": "Spider bot"
                        },
                        {
                            "_text": "Brazo"
                        }
                    ],
                    "_text": "Proyectos",
                    "__note": "Terminar 5 proyectos de electronica"
                },
                {
                    "outline": [
                        {
                            "_text": "Levantarme temprano "
                        },
                        {
                            "_text": "Hacer tareas cole"
                        },
                        {
                            "_text": "No hacer campana"
                        },
                        {
                            "outline": [
                                {
                                    "_text": "Hacer calendario"
                                },
                                {
                                    "_text": "Aprovechar tiempo en clase"
                                },
                                {
                                    "_text": "Priorizar tareas",
                                    "__note": "Hacer primero las tareas prioritarias entes de empezar tareas propias"
                                }
                            ],
                            "_text": "Organizarme"
                        }
                    ],
                    "_text": "Actitud"
                },
                {
                    "outline": [
                        {
                            "_text": "Leer un libro mensual"
                        },
                        {
                            "_text": "Ordenar habitación "
                        }
                    ],
                    "_text": "Otros"
                },
                {
                    "outline": [
                        {
                            "_text": "Dejar porros"
                        },
                        {
                            "_text": "Bajar a 70kg"
                        }
                    ],
                    "_text": "Salud",
                    "__note": "Propositos relacionados con la salud y el ejercicio"
                },
                {
                    "outline": [
                        {
                            "outline": [
                                {
                                    "outline": [
                                    {
                                        
                                        "_text": "No ir a ninguna recuperacion"
                                    }
                                ],

                                    "_text": "Terminar con nota sobre 8"
                                }
                            ],
                            "_text": "Acabar DAW"
                        },
                        {
                            "outline": [
                                {
                                    "_text": "Mantener la racha"
                                },
                                {
                                    "_text": "Traducir una cancion a la semana"
                                },
                                {
                                    "_text": "Terminar todas las lecciones de duolingo"
                                }
                            ],
                            "_text": "ITALIANO"
                        },
                        {
                            "outline": [
                                {
                                    "_text": "Ir Tecnocampus"
                                },
                                {
                                    "_text": "Aprobar todo 1r timestre"
                                },
                                {
                                    "_text": "Tener nota superior a 8"
                                }
                            ],
                            "_text": "UNI"
                        }
                    ],
                    "_text": "Estudios ",
                    "__note": "Metas relacionadas con los estudios"
                }
            ]
        },
        "_version": "1.0"
    }
}